; Engine configuration file.
; It's best edited using the editor UI and not directly,
; since the parameters that go here are not all obvious.
;
; Format:
;   [section] ; section goes between []
;   param=value ; assign values to parameters

config_version=5

[application]

config/name="firsttry"
run/main_scene="res://main.tscn"
config/features=PackedStringArray("4.1", "Mobile")
config/icon="res://icon.svg"

[autoload]

game="*res://global/game.gd"
utils="*res://global/utils.gd"

[display]

window/stretch/mode="canvas_items"

[rendering]

textures/canvas_textures/default_texture_filter=0
renderer/rendering_method="mobile"
